^C:\USERS\JULIAN\APPDATA\ROAMING\NPM\NODE_MODULES\NODE-GYP\SRC\WIN_DELAY_LOAD_HOOK.CC|C:\USERS\JULIAN\DOCUMENTS\PROJ4MINOR\NODEJS-C-TEST\BINDING.CC
C:\USERS\JULIAN\DOCUMENTS\PROJ4MINOR\NODEJS-C-TEST\BUILD\RELEASE\OBJ\BINDING\WIN_DELAY_LOAD_HOOK.OBJ
^C:\USERS\JULIAN\APPDATA\ROAMING\NPM\NODE_MODULES\NODE-GYP\SRC\WIN_DELAY_LOAD_HOOK.CC
C:\USERS\JULIAN\DOCUMENTS\PROJ4MINOR\NODEJS-C-TEST\BUILD\RELEASE\OBJ\BINDING\WIN_DELAY_LOAD_HOOK.OBJ
^C:\USERS\JULIAN\DOCUMENTS\PROJ4MINOR\NODEJS-C-TEST\BINDING.CC
C:\USERS\JULIAN\DOCUMENTS\PROJ4MINOR\NODEJS-C-TEST\BUILD\RELEASE\OBJ\BINDING\VC140.PDB
C:\USERS\JULIAN\DOCUMENTS\PROJ4MINOR\NODEJS-C-TEST\BUILD\RELEASE\OBJ\BINDING\BINDING.OBJ
